-- Merging decision tree log ---
manifest
ADDED from /Volumes/Work/Plum Kiosk/Project/Kiosk/android/app/src/main/AndroidManifest.xml:1:1-26:12
	package
		ADDED from /Volumes/Work/Plum Kiosk/Project/Kiosk/android/app/src/main/AndroidManifest.xml:2:5-24
		INJECTED from /Volumes/Work/Plum Kiosk/Project/Kiosk/android/app/src/main/AndroidManifest.xml
		INJECTED from /Volumes/Work/Plum Kiosk/Project/Kiosk/android/app/src/main/AndroidManifest.xml
	android:versionName
		INJECTED from /Volumes/Work/Plum Kiosk/Project/Kiosk/android/app/src/main/AndroidManifest.xml
		INJECTED from /Volumes/Work/Plum Kiosk/Project/Kiosk/android/app/src/main/AndroidManifest.xml
	xmlns:android
		ADDED from /Volumes/Work/Plum Kiosk/Project/Kiosk/android/app/src/main/AndroidManifest.xml:1:11-69
	android:versionCode
		INJECTED from /Volumes/Work/Plum Kiosk/Project/Kiosk/android/app/src/main/AndroidManifest.xml
		INJECTED from /Volumes/Work/Plum Kiosk/Project/Kiosk/android/app/src/main/AndroidManifest.xml
uses-permission#android.permission.INTERNET
ADDED from /Volumes/Work/Plum Kiosk/Project/Kiosk/android/app/src/main/AndroidManifest.xml:4:5-67
	android:name
		ADDED from /Volumes/Work/Plum Kiosk/Project/Kiosk/android/app/src/main/AndroidManifest.xml:4:22-64
uses-permission#android.permission.SYSTEM_ALERT_WINDOW
ADDED from /Volumes/Work/Plum Kiosk/Project/Kiosk/android/app/src/main/AndroidManifest.xml:5:5-77
MERGED from [com.facebook.react:react-native:0.56.1] /Users/evgenyvaganov/.android/build-cache/0089b841c15a73378167098431b155f1656d51bd/output/AndroidManifest.xml:11:5-78
	android:name
		ADDED from /Volumes/Work/Plum Kiosk/Project/Kiosk/android/app/src/main/AndroidManifest.xml:5:22-75
application
ADDED from /Volumes/Work/Plum Kiosk/Project/Kiosk/android/app/src/main/AndroidManifest.xml:7:5-24:19
MERGED from [com.facebook.react:react-native:0.56.1] /Users/evgenyvaganov/.android/build-cache/0089b841c15a73378167098431b155f1656d51bd/output/AndroidManifest.xml:13:5-20
MERGED from [com.android.support:appcompat-v7:26.1.0] /Users/evgenyvaganov/.android/build-cache/0d8cce376f137b5c633417a7122cbc1eba03cce5/output/AndroidManifest.xml:25:5-29:19
MERGED from [com.android.support:support-v4:26.1.0] /Users/evgenyvaganov/.android/build-cache/8d1acdb8a0564a47e19ba6f71c04d4de517af8c4/output/AndroidManifest.xml:25:5-29:19
MERGED from [com.android.support:support-media-compat:26.1.0] /Users/evgenyvaganov/.android/build-cache/468a9b4ce9731fa550ce1d97b3c4fe026007dfaf/output/AndroidManifest.xml:25:5-29:19
MERGED from [com.android.support:support-fragment:26.1.0] /Users/evgenyvaganov/.android/build-cache/04a4760e1b7a26a50adff833d2ee7fd11713bf6d/output/AndroidManifest.xml:25:5-29:19
MERGED from [com.android.support:support-core-utils:26.1.0] /Users/evgenyvaganov/.android/build-cache/e4ca0ffaa943838dda7967cf7ead7f69780558de/output/AndroidManifest.xml:25:5-29:19
MERGED from [com.android.support:animated-vector-drawable:26.1.0] /Users/evgenyvaganov/.android/build-cache/773e8b8d91da11b9304b68fc7c4c06df15c8fabe/output/AndroidManifest.xml:22:5-26:19
MERGED from [com.android.support:support-vector-drawable:26.1.0] /Users/evgenyvaganov/.android/build-cache/c2e40f7c94ec6003f185617bfb9f604e0f4eea28/output/AndroidManifest.xml:22:5-26:19
MERGED from [com.android.support:support-core-ui:26.1.0] /Users/evgenyvaganov/.android/build-cache/9e6550217548e6e6e5d406c037f7a2a815b86df5/output/AndroidManifest.xml:25:5-29:19
MERGED from [com.android.support:support-compat:26.1.0] /Users/evgenyvaganov/.android/build-cache/d5645665b8e182e7c84a7296377c5d703f9ba500/output/AndroidManifest.xml:25:5-29:19
MERGED from [android.arch.lifecycle:runtime:1.0.0] /Users/evgenyvaganov/.android/build-cache/9a83fbfffe32ca1f2c13f6d0f1b667ce90d8bf99/output/AndroidManifest.xml:24:5-28:19
MERGED from [com.facebook.soloader:soloader:0.3.0] /Users/evgenyvaganov/.android/build-cache/50d05b1d207bf14d7c5bd9b8bf6e8cef97e5f551/output/AndroidManifest.xml:11:5-20
MERGED from [org.webkit:android-jsc:r174650] /Users/evgenyvaganov/.android/build-cache/7d2d9f54bdde74c5973541191130f631d9f08826/output/AndroidManifest.xml:2:3-17
	android:label
		ADDED from /Volumes/Work/Plum Kiosk/Project/Kiosk/android/app/src/main/AndroidManifest.xml:9:7-39
	android:allowBackup
		ADDED from /Volumes/Work/Plum Kiosk/Project/Kiosk/android/app/src/main/AndroidManifest.xml:11:7-34
	android:icon
		ADDED from /Volumes/Work/Plum Kiosk/Project/Kiosk/android/app/src/main/AndroidManifest.xml:10:7-41
	android:theme
		ADDED from /Volumes/Work/Plum Kiosk/Project/Kiosk/android/app/src/main/AndroidManifest.xml:12:7-38
	android:name
		ADDED from /Volumes/Work/Plum Kiosk/Project/Kiosk/android/app/src/main/AndroidManifest.xml:8:7-38
activity#com.kiosk.MainActivity
ADDED from /Volumes/Work/Plum Kiosk/Project/Kiosk/android/app/src/main/AndroidManifest.xml:13:7-22:18
	android:label
		ADDED from /Volumes/Work/Plum Kiosk/Project/Kiosk/android/app/src/main/AndroidManifest.xml:15:9-41
	android:windowSoftInputMode
		ADDED from /Volumes/Work/Plum Kiosk/Project/Kiosk/android/app/src/main/AndroidManifest.xml:17:9-51
	android:configChanges
		ADDED from /Volumes/Work/Plum Kiosk/Project/Kiosk/android/app/src/main/AndroidManifest.xml:16:9-79
	android:name
		ADDED from /Volumes/Work/Plum Kiosk/Project/Kiosk/android/app/src/main/AndroidManifest.xml:14:9-37
intent-filter#android.intent.action.MAIN+android.intent.category.LAUNCHER
ADDED from /Volumes/Work/Plum Kiosk/Project/Kiosk/android/app/src/main/AndroidManifest.xml:18:9-21:25
action#android.intent.action.MAIN
ADDED from /Volumes/Work/Plum Kiosk/Project/Kiosk/android/app/src/main/AndroidManifest.xml:19:13-65
	android:name
		ADDED from /Volumes/Work/Plum Kiosk/Project/Kiosk/android/app/src/main/AndroidManifest.xml:19:21-62
category#android.intent.category.LAUNCHER
ADDED from /Volumes/Work/Plum Kiosk/Project/Kiosk/android/app/src/main/AndroidManifest.xml:20:13-73
	android:name
		ADDED from /Volumes/Work/Plum Kiosk/Project/Kiosk/android/app/src/main/AndroidManifest.xml:20:23-70
activity#com.facebook.react.devsupport.DevSettingsActivity
ADDED from /Volumes/Work/Plum Kiosk/Project/Kiosk/android/app/src/main/AndroidManifest.xml:23:7-84
	android:name
		ADDED from /Volumes/Work/Plum Kiosk/Project/Kiosk/android/app/src/main/AndroidManifest.xml:23:17-81
uses-sdk
INJECTED from /Volumes/Work/Plum Kiosk/Project/Kiosk/android/app/src/main/AndroidManifest.xml reason: use-sdk injection requested
MERGED from [com.facebook.react:react-native:0.56.1] /Users/evgenyvaganov/.android/build-cache/0089b841c15a73378167098431b155f1656d51bd/output/AndroidManifest.xml:7:5-9:41
MERGED from [com.android.support:appcompat-v7:26.1.0] /Users/evgenyvaganov/.android/build-cache/0d8cce376f137b5c633417a7122cbc1eba03cce5/output/AndroidManifest.xml:21:5-23:78
MERGED from [com.android.support:support-v4:26.1.0] /Users/evgenyvaganov/.android/build-cache/8d1acdb8a0564a47e19ba6f71c04d4de517af8c4/output/AndroidManifest.xml:21:5-23:54
MERGED from [com.android.support:support-media-compat:26.1.0] /Users/evgenyvaganov/.android/build-cache/468a9b4ce9731fa550ce1d97b3c4fe026007dfaf/output/AndroidManifest.xml:21:5-23:63
MERGED from [com.android.support:support-fragment:26.1.0] /Users/evgenyvaganov/.android/build-cache/04a4760e1b7a26a50adff833d2ee7fd11713bf6d/output/AndroidManifest.xml:21:5-23:60
MERGED from [com.android.support:support-core-utils:26.1.0] /Users/evgenyvaganov/.android/build-cache/e4ca0ffaa943838dda7967cf7ead7f69780558de/output/AndroidManifest.xml:21:5-23:61
MERGED from [com.android.support:animated-vector-drawable:26.1.0] /Users/evgenyvaganov/.android/build-cache/773e8b8d91da11b9304b68fc7c4c06df15c8fabe/output/AndroidManifest.xml:20:5-44
MERGED from [com.android.support:support-vector-drawable:26.1.0] /Users/evgenyvaganov/.android/build-cache/c2e40f7c94ec6003f185617bfb9f604e0f4eea28/output/AndroidManifest.xml:20:5-44
MERGED from [com.android.support:support-core-ui:26.1.0] /Users/evgenyvaganov/.android/build-cache/9e6550217548e6e6e5d406c037f7a2a815b86df5/output/AndroidManifest.xml:21:5-23:58
MERGED from [com.android.support:support-compat:26.1.0] /Users/evgenyvaganov/.android/build-cache/d5645665b8e182e7c84a7296377c5d703f9ba500/output/AndroidManifest.xml:21:5-23:58
MERGED from [android.arch.lifecycle:runtime:1.0.0] /Users/evgenyvaganov/.android/build-cache/9a83fbfffe32ca1f2c13f6d0f1b667ce90d8bf99/output/AndroidManifest.xml:20:5-22:41
MERGED from [com.facebook.fbui.textlayoutbuilder:textlayoutbuilder:1.0.0] /Users/evgenyvaganov/.android/build-cache/ec8eb0f8f18c30edf957e869d2e45738532c18c5/output/AndroidManifest.xml:14:5-16:41
MERGED from [com.facebook.fresco:fresco:1.9.0] /Users/evgenyvaganov/.android/build-cache/91eca8be1e4411ddc30c5129ed7612576614cebf/output/AndroidManifest.xml:5:5-7:41
MERGED from [com.facebook.fresco:drawee:1.9.0] /Users/evgenyvaganov/.android/build-cache/d5d4d4888af2bce5f055c0b102d8636b25ac1ed9/output/AndroidManifest.xml:5:5-7:41
MERGED from [com.facebook.fresco:imagepipeline-okhttp3:1.9.0] /Users/evgenyvaganov/.android/build-cache/b7236b06003c88200cac28506c2e1d69c1705a44/output/AndroidManifest.xml:5:5-7:41
MERGED from [com.facebook.fresco:imagepipeline:1.9.0] /Users/evgenyvaganov/.android/build-cache/da849634c0153e9938e208f4111f5500c1df8379/output/AndroidManifest.xml:5:5-7:41
MERGED from [com.facebook.fresco:imagepipeline-base:1.9.0] /Users/evgenyvaganov/.android/build-cache/abc1a3ef350e6bbba0cb349813e148d11e47c895/output/AndroidManifest.xml:5:5-7:41
MERGED from [com.facebook.fresco:fbcore:1.9.0] /Users/evgenyvaganov/.android/build-cache/bdc67e9bbee47123127d4851317dbcaaac54eb99/output/AndroidManifest.xml:5:5-7:41
MERGED from [com.facebook.soloader:soloader:0.3.0] /Users/evgenyvaganov/.android/build-cache/50d05b1d207bf14d7c5bd9b8bf6e8cef97e5f551/output/AndroidManifest.xml:7:5-9:41
	tools:overrideLibrary
		ADDED from [com.android.support:appcompat-v7:26.1.0] /Users/evgenyvaganov/.android/build-cache/0d8cce376f137b5c633417a7122cbc1eba03cce5/output/AndroidManifest.xml:23:9-75
	android:targetSdkVersion
		INJECTED from /Volumes/Work/Plum Kiosk/Project/Kiosk/android/app/src/main/AndroidManifest.xml
		INJECTED from /Volumes/Work/Plum Kiosk/Project/Kiosk/android/app/src/main/AndroidManifest.xml
	android:minSdkVersion
		INJECTED from /Volumes/Work/Plum Kiosk/Project/Kiosk/android/app/src/main/AndroidManifest.xml
		INJECTED from /Volumes/Work/Plum Kiosk/Project/Kiosk/android/app/src/main/AndroidManifest.xml
meta-data#android.support.VERSION
ADDED from [com.android.support:appcompat-v7:26.1.0] /Users/evgenyvaganov/.android/build-cache/0d8cce376f137b5c633417a7122cbc1eba03cce5/output/AndroidManifest.xml:26:9-28:38
MERGED from [com.android.support:support-v4:26.1.0] /Users/evgenyvaganov/.android/build-cache/8d1acdb8a0564a47e19ba6f71c04d4de517af8c4/output/AndroidManifest.xml:26:9-28:38
MERGED from [com.android.support:support-media-compat:26.1.0] /Users/evgenyvaganov/.android/build-cache/468a9b4ce9731fa550ce1d97b3c4fe026007dfaf/output/AndroidManifest.xml:26:9-28:38
MERGED from [com.android.support:support-fragment:26.1.0] /Users/evgenyvaganov/.android/build-cache/04a4760e1b7a26a50adff833d2ee7fd11713bf6d/output/AndroidManifest.xml:26:9-28:38
MERGED from [com.android.support:support-core-utils:26.1.0] /Users/evgenyvaganov/.android/build-cache/e4ca0ffaa943838dda7967cf7ead7f69780558de/output/AndroidManifest.xml:26:9-28:38
MERGED from [com.android.support:animated-vector-drawable:26.1.0] /Users/evgenyvaganov/.android/build-cache/773e8b8d91da11b9304b68fc7c4c06df15c8fabe/output/AndroidManifest.xml:23:9-25:38
MERGED from [com.android.support:support-vector-drawable:26.1.0] /Users/evgenyvaganov/.android/build-cache/c2e40f7c94ec6003f185617bfb9f604e0f4eea28/output/AndroidManifest.xml:23:9-25:38
MERGED from [com.android.support:support-core-ui:26.1.0] /Users/evgenyvaganov/.android/build-cache/9e6550217548e6e6e5d406c037f7a2a815b86df5/output/AndroidManifest.xml:26:9-28:38
MERGED from [com.android.support:support-compat:26.1.0] /Users/evgenyvaganov/.android/build-cache/d5645665b8e182e7c84a7296377c5d703f9ba500/output/AndroidManifest.xml:26:9-28:38
	android:value
		ADDED from [com.android.support:appcompat-v7:26.1.0] /Users/evgenyvaganov/.android/build-cache/0d8cce376f137b5c633417a7122cbc1eba03cce5/output/AndroidManifest.xml:28:13-35
	android:name
		ADDED from [com.android.support:appcompat-v7:26.1.0] /Users/evgenyvaganov/.android/build-cache/0d8cce376f137b5c633417a7122cbc1eba03cce5/output/AndroidManifest.xml:27:13-51
meta-data#android.arch.lifecycle.VERSION
ADDED from [android.arch.lifecycle:runtime:1.0.0] /Users/evgenyvaganov/.android/build-cache/9a83fbfffe32ca1f2c13f6d0f1b667ce90d8bf99/output/AndroidManifest.xml:25:9-27:47
	android:value
		ADDED from [android.arch.lifecycle:runtime:1.0.0] /Users/evgenyvaganov/.android/build-cache/9a83fbfffe32ca1f2c13f6d0f1b667ce90d8bf99/output/AndroidManifest.xml:27:13-44
	android:name
		ADDED from [android.arch.lifecycle:runtime:1.0.0] /Users/evgenyvaganov/.android/build-cache/9a83fbfffe32ca1f2c13f6d0f1b667ce90d8bf99/output/AndroidManifest.xml:26:13-58
uses-permission#android.permission.WRITE_EXTERNAL_STORAGE
IMPLIED from /Volumes/Work/Plum Kiosk/Project/Kiosk/android/app/src/main/AndroidManifest.xml:1:1-26:12 reason: org.webkit.android_jsc has a targetSdkVersion < 4
uses-permission#android.permission.READ_PHONE_STATE
IMPLIED from /Volumes/Work/Plum Kiosk/Project/Kiosk/android/app/src/main/AndroidManifest.xml:1:1-26:12 reason: org.webkit.android_jsc has a targetSdkVersion < 4
uses-permission#android.permission.READ_EXTERNAL_STORAGE
IMPLIED from /Volumes/Work/Plum Kiosk/Project/Kiosk/android/app/src/main/AndroidManifest.xml:1:1-26:12 reason: org.webkit.android_jsc requested WRITE_EXTERNAL_STORAGE
